%YAML 1.1
%TAG !u! tag:unity3d.com,2011:
--- !u!1045 &1
EditorBuildSettings:
  m_ObjectHideFlags: 0
  serializedVersion: 2
  m_Scenes:
  - enabled: 0
    path: Assets/0_Global/Scenes/GameSpider.unity
    guid: 2cda990e2423bbf4892e6590ba056729
  - enabled: 1
    path: Assets/0_Global/Scenes/Menu.unity
    guid: 978ac9d42494a4342a8935946c42c80d
  m_configObjects: {}
